Replace this with an interesting title – Home
…
rank_results(all_models2) |>
  dplyr::select(wflow_id, .config, .metric, mean, std_err, rank) |>
  arrange(.metric, rank)

# A tibble: 23 × 6
   wflow_id       .config               .metric  mean std_err  rank
   <chr>          <chr>                 <chr>   <dbl>   <dbl> <int>
 1 linear_lr      Preprocessor1_Model1  rmse    5785.    161.     1
 2 quadratic_lr   Preprocessor1_Model1  rmse    5786.    162.     2
 3 interaction_lr Preprocessor1_Model1  rmse    5787.    161.     3
 4 knn_knn2       Preprocessor1_Model06 rmse    6526.    197.     4
 5 knn_knn2       Preprocessor1_Model05 rmse    6535.    198.     5
 6 knn_knn2       Preprocessor1_Model07 rmse    6542.    196.     6
 7 knn_knn2       Preprocessor1_Model08 rmse    6569.    194.     7
 8 knn_knn2       Preprocessor1_Model04 rmse    6582.    199.     8
 9 knn_knn2       Preprocessor1_Model09 rmse    6594.    191.     9
10 knn_knn2       Preprocessor1_Model10 rmse    6616.    188.    10
# ℹ 13 more rows
…
knn_fit <- my_best_knn |> fit(
  data = data_train
)

knn_test_pred2 <- knn_fit |>
  augment(new_data = data_test) |>
  # apply the post-processing
  cal_apply(calibrate_knn)

knn_test_pred2

# A tibble: 256 × 43
    .pred  .resid  year  week home_team away_team winner tie   day   date  time 
    <dbl>   <dbl> <dbl> <dbl> <chr>     <chr>     <chr>  <chr> <chr> <chr> <tim>
 1 63164.  2.58e2  2019     1 Chicago … Green Ba… Green… <NA>  Thu   Sept… 20:20
 2 66532.  1.34e3  2019     1 Clevelan… Tennesse… Tenne… <NA>  Sun   Sept… 13:00
 3 60690.  8.46e3  2019     1 Minnesot… Atlanta … Minne… <NA>  Sun   Sept… 13:00
 4 69544.  3.09e2  2019     1 Philadel… Washingt… Phila… <NA>  Sun   Sept… 13:00
 5 64209.  8.60e3  2019     1 Carolina… Los Ange… Los A… <NA>  Sun   Sept… 13:00
 6 78133.  7.92e2  2019     1 New York… Buffalo … Buffa… <NA>  Sun   Sept… 13:00
 7 60060.  3.60e3  2019     1 Jacksonv… Kansas C… Kansa… <NA>  Sun   Sept… 13:00
 8 67733. -2.47e3  2019     1 Miami Do… Baltimor… Balti… <NA>  Sun   Sept… 13:00
 9 28264.  5.32e0  2019     1 Los Ange… Indianap… Los A… <NA>  Sun   Sept… 16:05
10 67214.  1.82e3  2019     1 Seattle … Cincinna… Seatt… <NA>  Sun   Sept… 16:05
# ℹ 246 more rows
# ℹ 32 more variables: pts_win <dbl>, pts_loss <dbl>, yds_win <dbl>,
#   turnovers_win <dbl>, yds_loss <dbl>, turnovers_loss <dbl>,
#   home_team_name <chr>, home_team_city <chr>, away_team_name <chr>,
#   away_team_city <chr>, team <chr>, team_name <chr>, total <dbl>, home <dbl>,
#   away <dbl>, weekly_attendance <dbl>, wins <dbl>, loss <dbl>,
#   points_for <dbl>, points_against <dbl>, points_differential <dbl>, …
…
